id,character_battle_id,is_use_spritesheet,js_path,json_path,images,frames
integer,integer,boolean,string,string,strings,integers
1,1,FALSE,/path/to/js,null,"image1;image2;image3","2;2;2;2;2;2;2;2"
2,2,TRUE,null,/path/to/json,image1,"2;2;2;2;2;2;2;2"