id,unit_id,level,image,type,exp,unlock_stage_count,available,profile
integer,integer,integer,string,integer,integer,integer,boolean,character_profile:1
1,1,1,/path/to/image.png,1,0,0,TRUE,1
2,1,2,/path/to/image.png,1,100,0,FALSE,2